<?xml version='1.0' encoding='UTF-8'?>
<kml xmlns='http://www.opengis.net/kml/2.2'>
	<Document>
		<name>GR8Conf</name>
		<Style id='icon-503-9FC3FF-nodesc'>
			<IconStyle>
				<color>ffFFC39F</color>
				<scale>1.1</scale>
				<Icon>
					<href>http://www.gstatic.com/mapspro/images/stock/503-wht-blank_maps.png</href>
				</Icon>
				<hotSpot x='16' y='31' xunits='pixels' yunits='insetPixels'>
				</hotSpot>
			</IconStyle>
			<BalloonStyle>
				<text><![CDATA[<h3>$[name]</h3>]]></text>
			</BalloonStyle>
		</Style>
		<Style id='icon-503-A61B4A-nodesc'>
			<IconStyle>
				<color>ff4A1BA6</color>
				<scale>1.1</scale>
				<Icon>
					<href>http://www.gstatic.com/mapspro/images/stock/503-wht-blank_maps.png</href>
				</Icon>
				<hotSpot x='16' y='31' xunits='pixels' yunits='insetPixels'>
				</hotSpot>
			</IconStyle>
			<BalloonStyle>
				<text><![CDATA[<h3>$[name]</h3>]]></text>
			</BalloonStyle>
		</Style>
		<Style id='icon-503-F8971B-nodesc'>
			<IconStyle>
				<color>ff1B97F8</color>
				<scale>1.1</scale>
				<Icon>
					<href>http://www.gstatic.com/mapspro/images/stock/503-wht-blank_maps.png</href>
				</Icon>
				<hotSpot x='16' y='31' xunits='pixels' yunits='insetPixels'>
				</hotSpot>
			</IconStyle>
			<BalloonStyle>
				<text><![CDATA[<h3>$[name]</h3>]]></text>
			</BalloonStyle>
		</Style>
		<Placemark>
			<name>GR8Conf EU</name>
			<styleUrl>#icon-503-F8971B-nodesc</styleUrl>
			<Point>
				<coordinates>12.591548,55.659605,0.0</coordinates>
			</Point>
		</Placemark>
		<Placemark>
			<name>GR8Conf US</name>
			<styleUrl>#icon-503-9FC3FF-nodesc</styleUrl>
			<Point>
				<coordinates>-93.27681200000002,44.97462500000001,0.0</coordinates>
			</Point>
		</Placemark>
		<Placemark>
			<name>GR8Conf IN</name>
			<styleUrl>#icon-503-A61B4A-nodesc</styleUrl>
			<Point>
				<coordinates>77.2090212,28.6139391,0.0</coordinates>
			</Point>
		</Placemark>

	</Document>
</kml>